%YAML 1.1
%TAG !u! tag:unity3d.com,2011:
--- !u!114 &11400000
MonoBehaviour:
  m_ObjectHideFlags: 0
  m_CorrespondingSourceObject: {fileID: 0}
  m_PrefabInternal: {fileID: 0}
  m_GameObject: {fileID: 0}
  m_Enabled: 1
  m_EditorHideFlags: 0
  m_Script: {fileID: 11500000, guid: 30df042521affc44292ec1047e0e65d6, type: 3}
  m_Name: SteamVR_Input_ActionSet_default_In
  m_EditorClassIdentifier: 
  actionSet: {fileID: 0}
  listDirection: 0
  actions:
  - {fileID: 11400000, guid: 53942ddf1e4ab18418d255de73eac760, type: 2}
  - {fileID: 11400000, guid: 56d93a83ea7b91b40b9fdaf22a91eba4, type: 2}
  - {fileID: 11400000, guid: a7abcfaf4fc4c8a43b2ad26ef536e106, type: 2}
  - {fileID: 11400000, guid: b6223dc014c8bf94ab029308fd0c1e6a, type: 2}
  - {fileID: 11400000, guid: 0380a2934a3a16f4db6870a2962d5129, type: 2}
  - {fileID: 11400000, guid: 5ef73c00a05dfb943a8b32f77a84bf29, type: 2}
  - {fileID: 11400000, guid: 047af1c40cba35342ba1abdcf9c98aad, type: 2}
  - {fileID: 11400000, guid: 539f9e727751c144baf8e88cf6d2d2b2, type: 2}
  InteractUI: {fileID: 11400000, guid: 53942ddf1e4ab18418d255de73eac760, type: 2}
  Teleport: {fileID: 11400000, guid: 56d93a83ea7b91b40b9fdaf22a91eba4, type: 2}
  GrabPinch: {fileID: 11400000, guid: a7abcfaf4fc4c8a43b2ad26ef536e106, type: 2}
  GrabGrip: {fileID: 11400000, guid: b6223dc014c8bf94ab029308fd0c1e6a, type: 2}
  Pose: {fileID: 11400000, guid: 0380a2934a3a16f4db6870a2962d5129, type: 2}
  SkeletonLeftHand: {fileID: 11400000, guid: 5ef73c00a05dfb943a8b32f77a84bf29, type: 2}
  SkeletonRightHand: {fileID: 11400000, guid: 047af1c40cba35342ba1abdcf9c98aad, type: 2}
  Squeeze: {fileID: 11400000, guid: 539f9e727751c144baf8e88cf6d2d2b2, type: 2}
